         run       event       nTopo   nIdTracks  nTauTracks       nTaus      nMuons       nElec   nTrueElec   nFakeElec       nPhot   nTruePhot   nFakePhot
      330470  1183722158           1           0           0           0           0           0           0           0           0           0           0
      330470  1183722342         369         428          18           2           0           2           0           2          11           0          11
      330470  1183727953         481         589          98           7           2           7           0           7          17           0          17
      330470  1183732647         419         505         133          11           0           7           0           7          18           0          18
      330470  1183733040         286         290          25           3           1           5           0           5           8           0           8
      330470  1183734651         325         371          61           6           2           4           0           4          15           0          15
      330470  1183735332         355         386          40           6           0           5           0           5           7           0           7
      330470  1183736475         690         708          80           6           0           3           0           3          21           0          21
      330470  1183738728           1           0           0           0           0           0           0           0           0           0           0
      330470  1183738949         342         451          74           8           0           5           0           5          10           0          10
      330470  1183742489         107         128           0           0           0           0           0           0           0           0           0
      330470  1183743040         232         327          22           4           0           2           0           2           1           0           1
      330470  1183746343         445         494          59           6           0           2           0           2          15           0          15
      330470  1183746710           4           0           0           0           0           0           0           0           0           0           0
      330470  1183751782         212         248           8           2           0           0           0           0           3           0           3
      330470  1183752624         329         367          46           4           1           3           0           3          13           0          13
      330470  1183753006         321         398          54           7           0           5           0           5          10           0          10
      330470  1183754806         362         426          64           8           0           4           0           4           9           0           9
      330470  1183769295         292         335          14           2           2           1           0           1           6           0           6
      330470  1183769939         300         362          33           3           0           5           0           5          11           0          11
      330470  1183773832         229         210           9           2           0           1           0           1           8           0           8
      330470  1183775209          21           0           0           0           0           0           0           0           0           0           0
      330470  1183787124         370         385          26           4           1           3           0           3           6           0           6
      330470  1183787946         262         326          30           4           0           2           0           2           5           0           5
      330470  1183795329         376         358          33           5           0           3           0           3           7           0           7
